…
Et il y a des communes sans habitants actifs...


```r
communes %>% 
  filter(prop_habitants_actifs_2014 == 0) %>% 
  select(commune, habitants_2014, personnes_actives_2014)
```

```
## # A tibble: 30 x 3
##    commune              habitants_2014 personnes_actives_2014
##    <chr>                         <dbl>                  <dbl>
##  1 GENAT                            21                      0
##  2 ILLIER ET LARAMADE               23                      0
##  3 LAPEGE                           27                      0
##  4 ORUS                             26                      0
##  5 LE PLA                           55                      0
##  6 CAMPAGNA DE SAULT                18                      0
##  7 CLERMONT SUR LAUQUET             27                      0
##  8 LA FAJOLLE                       10                      0
##  9 FONTANES DE SAULT                 5                      0
## 10 MASSAC                           30                      0
## # ... with 20 more rows
```
…
Communes avec zero ménages. Pourquoi ? Il y en a pas mal quand même... (824). Je propose de laisser tomber la mesure des ménages pour la suite, elle a l'air zarb.


```r
communes %>% 
  filter(menages_2014 == 0) %>% 
  select(commune, menages_2014, habitants_2014, personnes_actives_2014)
```

```
## # A tibble: 824 x 4
##    commune            menages_2014 habitants_2014 personnes_actives_2014
##    <chr>                     <dbl>          <dbl>                  <dbl>
##  1 AIGUES JUNTES                 0             58                     36
##  2 ALLIAT                        0             55                     20
##  3 ALLIERES                      0             71                     35
##  4 ANTRAS                        0             61                     10
##  5 APPY                          0             29                     18
##  6 ARABAUX                       0             60                     21
##  7 ARRIEN EN BETHMALE            0            108                     32
##  8 ARROUT                        0             80                     20
##  9 ARTIGUES                      0             52                     10
## 10 AUCAZEIN                      0             64                     28
## # ... with 814 more rows
```
…
